Deriving Graph and Image Features • BIRSBIO2020.scProteomics.embeddings
…
## # A tibble: 22 x 3
##    cellLabelInImage cellType               props
##               <dbl> <chr>                  <dbl>
##  1               38 Keratin-positive tumor 0.628
##  2               38 <NA>                   0.372
##  3               39 Keratin-positive tumor 0.574
##  4               39 <NA>                   0.426
##  5               40 Keratin-positive tumor 0.407
##  6               40 <NA>                   0.593
##  7               48 Keratin-positive tumor 0.621
##  8               48 <NA>                   0.379
##  9               65 Keratin-positive tumor 0.653
## 10               65 <NA>                   0.347
## # … with 12 more rows
…
